{
	"code": 1,
	"msg": "数据返回成功！",
	"data": {
		"page": 1,
		"totalCount": 100,
		"totalPage": 11,
		"limit": 10,
		"list": [
			{
				"language": "国语",
				"publishtime": "2020-03-24",
				"pic_big": "http://qukufile2.qianqian.com/data2/pic/8b1aab6be81f10639c01c1401a20463c/675021896/675021896.jpg@s_2,w_150,h_150",
				"pic_small": "http://qukufile2.qianqian.com/data2/pic/8b1aab6be81f10639c01c1401a20463c/675021896/675021896.jpg@s_2,w_90,h_90",
				"country": "内地",
				"lrclink": "http://qukufile2.qianqian.com/data2/lrc/cc8492076ab0def9daf88daf9a9b3751/675022268/675022268.txt",
				"file_duration": null,
				"si_proxycompany": "labelname_北京欣然文化传媒有限公司",
				"song_id": "675017674",
				"title": "少年（童声版）",
				"ting_uid": "340642446",
				"author": "宋小睿"
			},
			{
				"language": "国语",
				"publishtime": "2020-03-27",
				"pic_big": "http://qukufile2.qianqian.com/data2/pic/d24656e3b055acb05fe096f781920016/675907119/675907119.jpg@s_2,w_150,h_150",
				"pic_small": "http://qukufile2.qianqian.com/data2/pic/d24656e3b055acb05fe096f781920016/675907119/675907119.jpg@s_2,w_90,h_90",
				"country": "内地",
				"lrclink": "http://qukufile2.qianqian.com/data2/lrc/b5459ebbfdea9acecf2c462e9b70ce44/675236811/675236811.txt",
				"file_duration": null,
				"si_proxycompany": "华宇世博音乐文化（北京）有限公司-普通代理",
				"song_id": "675217012",
				"title": "拥抱春天",
				"ting_uid": "209968568",
				"author": "A公馆"
			},
			{
				"language": "国语",
				"publishtime": "2020-03-25",
				"pic_big": "http://qukufile2.qianqian.com/data2/pic/bae766e5c670ca417cc433156efcb528/679228055/679228055.png@s_2,w_150,h_150",
				"pic_small": "http://qukufile2.qianqian.com/data2/pic/bae766e5c670ca417cc433156efcb528/679228055/679228055.png@s_2,w_90,h_90",
				"country": "内地",
				"lrclink": "http://qukufile2.qianqian.com/data2/lrc/4d34b71f289827f459aadc951b172248/675012957/675012957.txt",
				"file_duration": null,
				"si_proxycompany": "永稻星（北京）文化娱乐有限公司",
				"song_id": "675012544",
				"title": "山河无恙在我胸-蔡徐坤+佟丽娅",
				"ting_uid": "9631389",
				"author": "佟丽娅,蔡徐坤"
			},
			{
				"language": "国语",
				"publishtime": "2020-04-03",
				"pic_big": "http://qukufile2.qianqian.com/data2/pic/56ed3280e6ed46ec7bb49cb0ee19af5b/675894516/675894516.jpg@s_2,w_150,h_150",
				"pic_small": "http://qukufile2.qianqian.com/data2/pic/56ed3280e6ed46ec7bb49cb0ee19af5b/675894516/675894516.jpg@s_2,w_90,h_90",
				"country": "内地",
				"lrclink": "http://qukufile2.qianqian.com/data2/lrc/6062cd0c1ac99981f8c8ccb8f6c1524e/675894483/675894483.txt",
				"file_duration": null,
				"si_proxycompany": "永稻星（北京）文化娱乐有限公司",
				"song_id": "675894480",
				"title": "Fight as ONE",
				"ting_uid": "1077",
				"author": "陈奕迅,蔡依林"
			},
			{
				"language": "国语",
				"publishtime": "2020-04-08",
				"pic_big": "http://qukufile2.qianqian.com/data2/pic/47879efd15685bc1c101822ff1df4d09/679091630/679091630.jpg@s_2,w_150,h_150",
				"pic_small": "http://qukufile2.qianqian.com/data2/pic/47879efd15685bc1c101822ff1df4d09/679091630/679091630.jpg@s_2,w_90,h_90",
				"country": "内地",
				"lrclink": "http://qukufile2.qianqian.com/data2/lrc/464b128cdcd633111f18b2b6c7a585a8/675916128/675916128.txt",
				"file_duration": null,
				"si_proxycompany": "奔跑怪物（北京）文化娱乐有限公司",
				"song_id": "675916125",
				"title": "只要平凡",
				"ting_uid": "1219",
				"author": "韩红"
			},
			{
				"language": "国语",
				"publishtime": "2020-03-27",
				"pic_big": "http://qukufile2.qianqian.com/data2/pic/0903f0ca3fcb7b1bfd5d3c024ec40d34/676261704/676261704.jpg@s_2,w_150,h_150",
				"pic_small": "http://qukufile2.qianqian.com/data2/pic/0903f0ca3fcb7b1bfd5d3c024ec40d34/676261704/676261704.jpg@s_2,w_90,h_90",
				"country": "内地",
				"lrclink": "http://qukufile2.qianqian.com/data2/lrc/8ec52d2659b1413ffcbfa5803adc1f5a/676261706/676261706.lrc",
				"file_duration": null,
				"si_proxycompany": "华宇世博音乐文化（北京）有限公司-九天石代理",
				"song_id": "675216983",
				"title": "稳住",
				"ting_uid": "340657235",
				"author": "李思光"
			},
			{
				"language": "国语",
				"publishtime": "2020-03-30",
				"pic_big": "http://qukufile2.qianqian.com/data2/pic/073bdc580730ff4d6d5fa40ace623825/675907121/675907121.jpg@s_2,w_150,h_150",
				"pic_small": "http://qukufile2.qianqian.com/data2/pic/073bdc580730ff4d6d5fa40ace623825/675907121/675907121.jpg@s_2,w_90,h_90",
				"country": "内地",
				"lrclink": "http://qukufile2.qianqian.com/data2/lrc/8d0755413928555f53025d219c42ffe1/675341062/675341062.txt",
				"file_duration": null,
				"si_proxycompany": "华宇世博音乐文化（北京）有限公司-九天石代理",
				"song_id": "675340822",
				"title": "遇",
				"ting_uid": "340623621",
				"author": "苍耳乐队"
			},
			{
				"language": "国语",
				"publishtime": "2020-04-09",
				"pic_big": "http://qukufile2.qianqian.com/data2/pic/cb7dbcb22cdfb1ba71cd7c0077e8bfe7/675916502/675916502.jpg@s_2,w_150,h_150",
				"pic_small": "http://qukufile2.qianqian.com/data2/pic/cb7dbcb22cdfb1ba71cd7c0077e8bfe7/675916502/675916502.jpg@s_2,w_90,h_90",
				"country": "内地",
				"lrclink": "http://qukufile2.qianqian.com/data2/lrc/6713640cfb812009acfe799920216c12/675916289/675916289.txt",
				"file_duration": null,
				"si_proxycompany": "上海圣臻文化发展有限公司",
				"song_id": "675916097",
				"title": "Home",
				"ting_uid": "239563102",
				"author": "蔡徐坤"
			},
			{
				"language": "国语",
				"publishtime": "2020-04-08",
				"pic_big": "http://qukufile2.qianqian.com/data2/pic/ee4498322b9874df6c77a34bc0a2a6d7/675961654/675961654.jpg@s_2,w_150,h_150",
				"pic_small": "http://qukufile2.qianqian.com/data2/pic/ee4498322b9874df6c77a34bc0a2a6d7/675961654/675961654.jpg@s_2,w_90,h_90",
				"country": "内地",
				"lrclink": "http://qukufile2.qianqian.com/data2/lrc/c2a60657ff56a87a3c4ddaf2ddf3f264/675961655/675961655.txt",
				"file_duration": null,
				"si_proxycompany": "华宇世博音乐文化（北 京）有限公司-太合麦田",
				"song_id": "675915880",
				"title": "无论黑夜多漫长",
				"ting_uid": "110970553",
				"author": "Click#15"
			},
			{
				"language": "国语",
				"publishtime": "2020-04-06",
				"pic_big": "http://qukufile2.qianqian.com/data2/pic/da2b01d86d71b23800a2645168e495a8/675916361/675916361.jpg@s_2,w_150,h_150",
				"pic_small": "http://qukufile2.qianqian.com/data2/pic/da2b01d86d71b23800a2645168e495a8/675916361/675916361.jpg@s_2,w_90,h_90",
				"country": "内地",
				"lrclink": "http://qukufile2.qianqian.com/data2/lrc/48b3cdc1fdca4d73303d59e4c7e549a0/675916389/675916389.txt",
				"file_duration": null,
				"si_proxycompany": "labelname_北京欣然文化传媒有限公司",
				"song_id": "675916359",
				"title": "惊雷",
				"ting_uid": "340670120",
				"author": "廖哥"
			}
		]
	}
}
